…
Load the data:


```r
library(cavax)
```

Look at it:


```r
cavax
#> # A tibble: 7,032 x 13
#>      code county name  type  district city  enrollment pbe_pct exempt
#>     <dbl> <chr>  <chr> <chr> <chr>    <chr>      <dbl>   <dbl>  <dbl>
#>  1 1.10e5 ALAME… FAME… PUBL… ALAMEDA… NEWA…        109      13  12.8 
#>  2 6.00e6 ALAME… COX … PUBL… ALAMEDA… OAKL…        115       1   0.87
#>  3 6.00e6 ALAME… LAZE… PUBL… ALAMEDA… OAKL…         40       0   0   
#>  4 1.24e5 ALAME… YU M… PUBL… ALAMEDA… OAKL…         52      10   9.62
#>  5 6.10e6 ALAME… AMEL… PUBL… ALAMEDA… ALAM…        128       2   1.56
#>  6 6.11e6 ALAME… BAY … PUBL… ALAMEDA… ALAM…         70       1   1.43
#>  7 6.09e6 ALAME… DONA… PUBL… ALAMEDA… ALAM…        100       3   3   
#>  8 6.09e6 ALAME… EDIS… PUBL… ALAMEDA… ALAM…         70       1   1.43
#>  9 6.09e6 ALAME… FRAN… PUBL… ALAMEDA… ALAM…         95       1   1.05
#> 10 6.09e6 ALAME… FRAN… PUBL… ALAMEDA… ALAM…         50       2   2   
#> # … with 7,022 more rows, and 4 more variables: med_exempt <dbl>,
#> #   rel_exempt <dbl>, mwc <fct>, kind <fct>
```
